<svg width="68" height="70" viewBox="0 0 68 70" fill="none" xmlns="http://www.w3.org/2000/svg">
<path d="M68 29.7326L62.4808 33.3934C61.8272 33.7713 61.1976 34.0769 60.5461 34.2411L60.4571 34.2626L60.4571 35.7374C61.1107 35.8886 61.7403 36.1602 62.3918 36.5523L62.4808 36.6066L68 40.2411L68 43.4015L61.5346 39.0822C60.6411 38.5028 59.984 38.2395 59.3007 38.2395C58.6589 38.2395 57.9921 38.4656 57.1287 39.0406L53.6484 41.3883L55.0713 45.2628L55.0984 45.3341L55.1523 45.4729C55.1613 45.4955 55.1703 45.518 55.1793 45.5403L55.233 45.6713C55.5554 46.4421 55.878 46.9425 56.3165 47.2757L56.3534 47.3031C56.8256 47.6469 57.4175 47.7929 58.2424 47.864L58.3862 47.8755L58.5346 47.8856L58.6859 47.8945L66.4345 48.2297L64.5962 50.7652L57.9838 50.476C57.2333 50.3967 56.5448 50.2731 55.9214 50.0221L55.8368 49.9871L54.9717 51.1803C55.4118 51.6876 55.7618 52.2782 56.0589 52.9792L56.0991 53.0755L58.4324 59.2668L56.5786 61.8236L53.8815 54.521L53.8542 54.4506L53.7995 54.3138C53.4437 53.4412 53.0819 52.8971 52.5686 52.5234C52.0494 52.1453 51.3772 51.9355 50.3415 51.8922L46.1488 51.7415L45.0273 55.7142L44.9882 55.8604C44.9819 55.8844 44.9757 55.9082 44.9697 55.9318L44.9349 56.0716C44.7237 56.9433 44.6884 57.5666 44.8678 58.12C45.0623 58.7198 45.5043 59.2155 46.2184 59.8156L46.3434 59.9195L46.408 59.9723L52.4802 64.8076L49.5057 65.7761L44.3258 61.6472C43.7652 61.1411 43.2806 60.6355 42.9235 60.0653L42.8756 59.9871L41.4758 60.4429C41.5343 61.1125 41.4711 61.7965 41.3003 62.5386L41.2763 62.6402L39.5325 69.0234L36.533 70L38.6344 62.5034L38.654 62.4286L38.6908 62.2823C38.9136 61.3695 38.9396 60.7175 38.7439 60.1139C38.5456 59.5023 38.1249 58.9366 37.3124 58.2915L34.0087 55.7L30.7713 58.2534C30.7304 58.2863 30.6903 58.3187 30.6511 58.3509L30.5361 58.4465L30.4261 58.5403C29.7991 59.0826 29.4262 59.5428 29.2461 60.0612L29.2311 60.1058C29.0611 60.6303 29.0908 61.2019 29.2518 61.9429L29.2826 62.0795L29.3161 62.22C29.3219 62.2438 29.3278 62.2677 29.3338 62.2918L29.3714 62.4385L29.3906 62.5116L31.467 70L28.4925 69.0315L26.7237 62.6402C26.567 61.9004 26.4715 61.206 26.5171 60.5343L26.5242 60.4429L25.1244 59.9871C24.779 60.5633 24.3267 61.0794 23.7532 61.5792L23.6742 61.6472L18.5193 65.7842L15.5198 64.8076L21.617 59.9805C22.443 59.3079 22.896 58.7631 23.1072 58.1118C23.3055 57.5002 23.297 56.7948 23.0181 55.7943L21.8654 51.7517L17.7485 51.9106L17.601 51.9183C17.5527 51.9211 17.5051 51.9241 17.4584 51.9274L17.3204 51.9378L17.1869 51.9497C16.3996 52.0257 15.8509 52.1854 15.416 52.502C14.9596 52.8343 14.6441 53.3303 14.3324 54.053L14.2757 54.187C14.2662 54.2097 14.2568 54.2327 14.2473 54.2558L14.1904 54.3974L14.1339 54.5423L11.4214 61.8236L9.58305 59.2881L11.9009 53.0755C12.208 52.3848 12.5381 51.7667 12.9689 51.2501L13.0283 51.1803L12.1632 49.9871C11.5458 50.2498 10.8771 50.4009 10.12 50.4674L10.0162 50.476L3.41925 50.7865L1.56547 48.2297L9.32954 47.9158L9.47883 47.9068C9.57668 47.9002 9.67122 47.8926 9.76266 47.8837L9.89753 47.8695C10.6488 47.7837 11.1837 47.6076 11.6312 47.2818C12.1504 46.9038 12.5572 46.3281 12.9184 45.3544L14.3571 41.4049L10.9333 39.1086L10.868 39.0658L10.7401 38.9836C9.94058 38.4763 9.34086 38.2261 8.74625 38.2136L8.69932 38.2131C8.1032 38.2131 7.52709 38.4536 6.79649 38.8997L6.66592 38.9805L6.53193 39.0656L6.46535 39.1086L-1.89714e-06 43.4015L-1.76014e-06 40.2674L5.5192 36.6066C6.17282 36.2287 6.8024 35.9231 7.45393 35.7589L7.54291 35.7374L7.54291 34.2626C6.88929 34.1114 6.25972 33.8398 5.60819 33.4477L5.5192 33.3934L-1.3008e-06 29.7589L-1.16266e-06 26.5985L6.46535 30.9178C7.35894 31.4972 8.01599 31.7605 8.69932 31.7605C9.34108 31.7605 10.0079 31.5344 10.8713 30.9594L14.3517 28.6115L12.9287 24.7372C12.8925 24.6412 12.8566 24.5487 12.8207 24.4597L12.767 24.3287C12.4356 23.5364 12.104 23.0299 11.6466 22.6969C11.1744 22.3531 10.5825 22.2071 9.75756 22.136L9.61384 22.1245L9.46543 22.1143L9.31409 22.1055L1.56547 21.7703L3.4038 19.2348L10.0162 19.524C10.7667 19.6033 11.4552 19.7269 12.0786 19.9778L12.1632 20.0129L13.0283 18.8197C12.5882 18.3124 12.2382 17.7218 11.9411 17.0208L11.9009 16.9245L9.5676 10.7332L11.4214 8.17638L14.1185 15.479C14.5015 16.4741 14.8786 17.0741 15.4314 17.4766C15.9506 17.8547 16.6228 18.0645 17.6585 18.1078L21.8514 18.2584L22.9727 14.2858L23.0118 14.1396C23.2631 13.1796 23.3229 12.5104 23.1459 11.9239L23.1322 11.88C22.9488 11.3145 22.5454 10.8414 21.9014 10.2863L21.7816 10.1844C21.7408 10.1501 21.6991 10.1155 21.6566 10.0805L21.592 10.0277L15.5198 5.19243L18.4943 4.22393L23.6742 8.35276C24.2348 8.85892 24.7194 9.3645 25.0765 9.93472L25.1244 10.0129L26.5242 9.55712C26.4657 8.88748 26.5289 8.20352 26.6997 7.46141L26.7237 7.35985L28.4676 0.976629L31.467 -1.59691e-06L29.3656 7.49655C29.3456 7.57196 29.3268 7.64565 29.3092 7.71771L29.2757 7.85969C29.0843 8.69897 29.0707 9.31424 29.2561 9.88607C29.4544 10.4977 29.8751 11.0634 30.6876 11.7085L33.9915 14.2999L37.2287 11.7466C37.2696 11.7137 37.3097 11.6813 37.3489 11.6491L37.4639 11.5535L37.5739 11.4597C38.2188 10.9019 38.5948 10.4309 38.7689 9.8942C38.9389 9.36972 38.9092 8.79813 38.7482 8.05711L38.7174 7.92048L38.6839 7.77996C38.6781 7.75621 38.6722 7.73228 38.6662 7.70819L38.6286 7.56151L38.6094 7.48841L36.533 -1.37547e-06L39.5075 0.968491L41.2763 7.35985C41.433 8.09955 41.5285 8.794 41.4829 9.46567L41.4758 9.55712L42.8756 10.0129C43.221 9.43666 43.6734 8.92058 44.2468 8.42081L44.3258 8.35276L49.4807 4.21579L52.4802 5.19243L46.383 10.0195L46.2619 10.1195C45.5123 10.7468 45.0934 11.2695 44.8928 11.8882C44.6945 12.4998 44.703 13.2052 44.9819 14.2057L46.1348 18.2482L50.2515 18.0893L50.399 18.0817L50.5416 18.0726C50.565 18.071 50.5882 18.0693 50.6112 18.0676L50.7469 18.0565C50.7692 18.0545 50.7912 18.0524 50.8131 18.0503L50.9421 18.0369C51.661 17.9561 52.1733 17.797 52.584 17.4979C53.0404 17.1657 53.3559 16.6697 53.6677 15.947L53.7243 15.813C53.7338 15.7903 53.7432 15.7673 53.7527 15.7442L53.8096 15.6026L53.8661 15.4577L56.5786 8.17638L58.417 10.7119L56.0991 16.9245C55.792 17.6152 55.4619 18.2333 55.0311 18.7499L54.9717 18.8197L55.8368 20.0129C56.4542 19.7502 57.1229 19.5991 57.88 19.5326L57.9838 19.524L64.5808 19.2135L66.4345 21.7703L58.6705 22.0842L58.5212 22.0932C57.5426 22.1588 56.8953 22.3349 56.3688 22.7182C55.8496 23.0962 55.4428 23.6719 55.0816 24.6456L53.6431 28.5951L57.0667 30.8914L57.132 30.9341L57.2599 31.0164C58.0594 31.5237 58.6591 31.7739 59.2538 31.7864L59.3007 31.7869C59.8968 31.7869 60.4729 31.5464 61.2035 31.1003L61.3341 31.0194L61.4681 30.9344L61.5346 30.8914L68 26.5985L68 29.7326ZM58.0129 35.7374L58.0129 34.2626C57.358 34.1111 56.7032 33.8387 56.0483 33.4222L55.9629 33.3671L52.6978 31.1909L50.4121 29.692L50.4194 29.6724L50.3911 29.6536L51.3731 27.0727L52.7261 23.3845C53.0042 22.6516 53.3675 22.0362 53.8023 21.5194L53.8594 21.4526L52.9943 20.2594C52.3757 20.5226 51.6861 20.6879 50.912 20.7367L50.8106 20.7424L46.8925 20.905L44.1642 21.0387L44.1585 21.0185L44.1247 21.02L43.4053 18.3536L42.3366 14.5728C42.1318 13.8161 42.0647 13.1042 42.1133 12.4301L42.1203 12.3423L40.7205 11.8866C40.3744 12.4639 39.9136 13.0038 39.3159 13.4993L39.2372 13.5636L36.1629 16.003L34.034 17.7181L34.0176 17.7051L33.991 17.7263L31.8451 15.9928L28.7628 13.5636C28.1532 13.0721 27.6814 12.5357 27.3253 11.9617L27.2795 11.8866L25.8797 12.3423C25.9384 13.0133 25.8822 13.7215 25.6893 14.4744L25.6634 14.5728L24.6071 18.3572L23.8907 20.9987L23.87 20.9978L23.8608 21.0305L21.1079 20.8922L17.1894 20.7424C16.408 20.7038 15.7116 20.5478 15.0868 20.2931L15.0057 20.2594L14.1406 21.4526C14.5816 21.9608 14.9516 22.5669 15.2371 23.2896L15.2739 23.3845L16.639 27.0683L17.6089 29.6272L17.5917 29.6388L17.6033 29.6707L15.2952 31.1802L12.0371 33.3671C11.3823 33.7962 10.7274 34.0801 10.0725 34.2421L9.98713 34.2626L9.98713 35.7374C10.642 35.8889 11.2968 36.1612 11.9517 36.5777L12.0371 36.6329L15.3024 38.8091L17.5879 40.308L17.5808 40.3277L17.6089 40.3464L16.627 42.9272L15.2739 46.6155C14.9958 47.3484 14.6325 47.9638 14.1977 48.4806L14.1406 48.5474L15.0057 49.7406C15.6243 49.4774 16.3139 49.3121 17.088 49.2633L17.1894 49.2576L21.1077 49.0949L23.8358 48.9613L23.8415 48.9814L23.8753 48.98L24.5947 51.6462L25.6634 55.4272C25.8682 56.1839 25.9353 56.8957 25.8867 57.5699L25.8797 57.6576L27.2795 58.1134C27.6256 57.5361 28.0864 56.9961 28.6841 56.5007L28.7628 56.4364L31.8373 53.9968L33.966 52.2819L33.9824 52.2947L34.009 52.2737L36.1551 54.0071L39.2372 56.4364C39.8468 56.9279 40.3186 57.4643 40.6747 58.0383L40.7205 58.1134L42.1203 57.6576C42.0616 56.9867 42.1178 56.2785 42.3107 55.5256L42.3366 55.4272L43.3931 51.6426L44.1093 49.0013L44.1301 49.0021L44.1392 48.9695L46.8922 49.1078L50.8106 49.2576C51.592 49.2962 52.2884 49.4522 52.9132 49.7069L52.9943 49.7406L53.8594 48.5474C53.4184 48.0392 53.0484 47.4331 52.7629 46.7104L52.7261 46.6155L51.361 42.9315L50.3911 40.3728L50.4085 40.3611L50.3967 40.3293L52.705 38.8196L55.9629 36.6329C56.6177 36.2038 57.2726 35.9199 57.9275 35.7579L58.0129 35.7374Z" fill="#CEB2A5"/>
</svg>
